{
    "status": true,
    "message": "Fetch Successful",
    "page": {
        "hasNextPage": true,
        "totalCount": 34,
        "currentPage": 1,
        "filterCount": 10,
        "totalPage": 4
    },
    "data": [
        {
            "_id": "6077cff8627a711ba1d2b89b",
            "code": "BS-DR-0001",
            "createdBy": "6077cdbe627a711ba1d2b823",
            "updatedBy": "6077cdbe627a711ba1d2b823",
            "name": "Dashboard",
            "path": "/dashboard",
            "urlEndPoint": "/dashboard",
            "level": 1,
            "icon": "fa fa-tachometer",
            "type": null,
            "drawer-code": null,
            "collectionName": null,
            "drawerId": []
        },
        {
            "_id": "6077cff8627a711ba1d2b89c",
            "code": "BS-DR-0002",
            "createdBy": "6077cdbe627a711ba1d2b823",
            "updatedBy": "6077cdbe627a711ba1d2b823",
            "name": "Associate Unit",
            "path": "/dashboard/associate-unit",
            "urlEndPoint": "/associate-unit",
            "level": 1,
            "icon": "fa fa-plus-square",
            "type": null,
            "drawer-code": null,
            "collectionName": null,
            "drawerId": []
        },
        {
            "_id": "6077cff8627a711ba1d2b89d",
            "code": "BS-DR-0003",
            "createdBy": "6077cdbe627a711ba1d2b823",
            "updatedBy": "6077cdbe627a711ba1d2b823",
            "name": "Assign Unit",
            "path": "/dashboard/assign-unit",
            "urlEndPoint": "/assign-unit",
            "level": 1,
            "icon": "fa fa-check-square",
            "type": null,
            "drawer-code": null,
            "collectionName": null,
            "drawerId": []
        },
        {
            "_id": "6077cff8627a711ba1d2b8a5",
            "code": "BS-DR-0011",
            "createdBy": "6077cdbe627a711ba1d2b823",
            "updatedBy": "6077cdbe627a711ba1d2b823",
            "name": "Manage",
            "path": null,
            "urlEndPoint": null,
            "level": 1,
            "icon": "fa fa-tasks",
            "type": null,
            "drawer-code": "BS-DR-0004,BS-DR-0005,BS-DR-0006,BS-DR-0007,BS-DR-0008,BS-DR-0009,BS-DR-00010",
            "collectionName": null,
            "drawerId": [
                {
                    "_id": "6077cff8627a711ba1d2b89e",
                    "code": "BS-DR-0004",
                    "createdBy": "6077cdbe627a711ba1d2b823",
                    "updatedBy": "6077cdbe627a711ba1d2b823",
                    "name": "Health Authority",
                    "path": "/dashboard/manage/health-authority",
                    "urlEndPoint": "/health-authority",
                    "level": 2,
                    "icon": null,
                    "type": "manage",
                    "drawer-code": null,
                    "collectionName": "authorities"
                },
                {
                    "_id": "6077cff8627a711ba1d2b89f",
                    "code": "BS-DR-0005",
                    "createdBy": "6077cdbe627a711ba1d2b823",
                    "updatedBy": "6077cdbe627a711ba1d2b823",
                    "name": "Hospital",
                    "path": "/dashboard/manage/hospital",
                    "urlEndPoint": "/client",
                    "level": 2,
                    "icon": null,
                    "type": "manage",
                    "drawer-code": null,
                    "collectionName": "clients"
                },
                {
                    "_id": "6077cff8627a711ba1d2b8a0",
                    "code": "BS-DR-0006",
                    "createdBy": "6077cdbe627a711ba1d2b823",
                    "updatedBy": "6077cdbe627a711ba1d2b823",
                    "name": "Location",
                    "path": "/dashboard/manage/location",
                    "urlEndPoint": "/location",
                    "level": 2,
                    "icon": null,
                    "type": "manage",
                    "drawer-code": null,
                    "collectionName": "locations"
                },
                {
                    "_id": "6077cff8627a711ba1d2b8a1",
                    "code": "BS-DR-0007",
                    "createdBy": "6077cdbe627a711ba1d2b823",
                    "updatedBy": "6077cdbe627a711ba1d2b823",
                    "name": "Device",
                    "path": "/dashboard/manage/device",
                    "urlEndPoint": "/device",
                    "level": 2,
                    "icon": null,
                    "type": "manage",
                    "drawer-code": null,
                    "collectionName": "devices"
                },
                {
                    "_id": "6077cff8627a711ba1d2b8a2",
                    "code": "BS-DR-0008",
                    "createdBy": "6077cdbe627a711ba1d2b823",
                    "updatedBy": "6077cdbe627a711ba1d2b823",
                    "name": "User",
                    "path": "/dashboard/manage/user",
                    "urlEndPoint": "/user",
                    "level": 2,
                    "icon": null,
                    "type": "manage",
                    "drawer-code": null,
                    "collectionName": "users"
                },
                {
                    "_id": "6077cff8627a711ba1d2b8a3",
                    "code": "BS-DR-0009",
                    "createdBy": "6077cdbe627a711ba1d2b823",
                    "updatedBy": "6077cdbe627a711ba1d2b823",
                    "name": "Rule",
                    "path": "/dashboard/manage/rule",
                    "urlEndPoint": "/rule",
                    "level": 2,
                    "icon": null,
                    "type": "manage",
                    "drawer-code": null,
                    "collectionName": "rules"
                }
            ]
        },
        {
            "_id": "6077cff8627a711ba1d2b8ac",
            "code": "BS-DR-0018",
            "createdBy": "6077cdbe627a711ba1d2b823",
            "updatedBy": "6077cdbe627a711ba1d2b823",
            "name": "Reports",
            "path": null,
            "urlEndPoint": null,
            "level": 1,
            "icon": "fa fa-area-chart",
            "type": null,
            "drawer-code": "BS-DR-0012,BS-DR-0013,BS-DR-0014,BS-DR-0015,BS-DR-0016,BS-DR-0017",
            "collectionName": null,
            "drawerId": [
                {
                    "_id": "6077cff8627a711ba1d2b8a6",
                    "code": "BS-DR-0012",
                    "createdBy": "6077cdbe627a711ba1d2b823",
                    "updatedBy": "6077cdbe627a711ba1d2b823",
                    "name": "Movements",
                    "path": "/dashboard/reports/movements",
                    "urlEndPoint": "/activity",
                    "level": 2,
                    "icon": null,
                    "type": "report",
                    "drawer-code": null,
                    "collectionName": "movementViewCollection"
                },
                {
                    "_id": "6077cff8627a711ba1d2b8a7",
                    "code": "BS-DR-0013",
                    "createdBy": "6077cdbe627a711ba1d2b823",
                    "updatedBy": "6077cdbe627a711ba1d2b823",
                    "name": "Fated",
                    "path": "/dashboard/reports/fated",
                    "urlEndPoint": "/fated",
                    "level": 2,
                    "icon": null,
                    "type": "report",
                    "drawer-code": null,
                    "collectionName": "fatedViewCollection"
                },
                {
                    "_id": "6077cff8627a711ba1d2b8a8",
                    "code": "BS-DR-0014",
                    "createdBy": "6077cdbe627a711ba1d2b823",
                    "updatedBy": "6077cdbe627a711ba1d2b823",
                    "name": "Dereservation",
                    "path": "/dashboard/reports/dereservation",
                    "urlEndPoint": "/dereservation",
                    "level": 2,
                    "icon": null,
                    "type": "report",
                    "drawer-code": null,
                    "collectionName": "dereservationViewCollection"
                },
                {
                    "_id": "6077cff8627a711ba1d2b8a9",
                    "code": "BS-DR-0015",
                    "createdBy": "6077cdbe627a711ba1d2b823",
                    "updatedBy": "6077cdbe627a711ba1d2b823",
                    "name": "Assigned",
                    "path": "/dashboard/reports/assigned",
                    "urlEndPoint": "/assigned",
                    "level": 2,
                    "icon": null,
                    "type": "report",
                    "drawer-code": null,
                    "collectionName": "assignedViewCollection"
                },
                {
                    "_id": "6077cff8627a711ba1d2b8aa",
                    "code": "BS-DR-0016",
                    "createdBy": "6077cdbe627a711ba1d2b823",
                    "updatedBy": "6077cdbe627a711ba1d2b823",
                    "name": "Stock",
                    "path": "/dashboard/reports/stock",
                    "urlEndPoint": "/stock",
                    "level": 2,
                    "icon": null,
                    "type": "report",
                    "drawer-code": null,
                    "collectionName": "stockViewCollection"
                },
                {
                    "_id": "6077cff8627a711ba1d2b8ab",
                    "code": "BS-DR-0017",
                    "createdBy": "6077cdbe627a711ba1d2b823",
                    "updatedBy": "6077cdbe627a711ba1d2b823",
                    "name": "Notifications",
                    "path": "/dashboard/reports/notifications",
                    "urlEndPoint": "/notifications",
                    "level": 2,
                    "icon": null,
                    "type": "report",
                    "drawer-code": null,
                    "collectionName": "notificationViewCollection"
                }
            ]
        },
        {
            "_id": "6077cff8627a711ba1d2b8ad",
            "code": "BS-DR-0019",
            "createdBy": "6077cdbe627a711ba1d2b823",
            "updatedBy": "6077cdbe627a711ba1d2b823",
            "name": "Device Process",
            "path": "/dashboard/device-process",
            "urlEndPoint": "/device-process",
            "level": 1,
            "icon": "fa fa-barcode",
            "type": "report",
            "drawer-code": null,
            "collectionName": "deviceProcessesViewCollection",
            "drawerId": []
        },
        {
            "_id": "6077cff8627a711ba1d2b8b4",
            "code": "BS-DR-0026",
            "createdBy": "6077cdbe627a711ba1d2b823",
            "updatedBy": "6077cdbe627a711ba1d2b823",
            "name": "Grouping",
            "path": null,
            "urlEndPoint": null,
            "level": 1,
            "icon": "fa fa-th-large",
            "type": null,
            "drawer-code": "BS-DR-0020,BS-DR-0021,BS-DR-0022,BS-DR-0023,BS-DR-0024,BS-DR-0025",
            "collectionName": null,
            "drawerId": [
                {
                    "_id": "6077cff8627a711ba1d2b8ae",
                    "code": "BS-DR-0020",
                    "createdBy": "6077cdbe627a711ba1d2b823",
                    "updatedBy": "6077cdbe627a711ba1d2b823",
                    "name": "Product Group",
                    "path": "/dashboard/master/product-group",
                    "urlEndPoint": "/product-group",
                    "level": 2,
                    "icon": null,
                    "type": "manage",
                    "drawer-code": null,
                    "collectionName": "productGroups"
                },
                {
                    "_id": "6077cff8627a711ba1d2b8af",
                    "code": "BS-DR-0021",
                    "createdBy": "6077cdbe627a711ba1d2b823",
                    "updatedBy": "6077cdbe627a711ba1d2b823",
                    "name": "User Group",
                    "path": "/dashboard/master/user-group",
                    "urlEndPoint": "/user-group",
                    "level": 2,
                    "icon": null,
                    "type": "manage",
                    "drawer-code": null,
                    "collectionName": "userGroups"
                },
                {
                    "_id": "6077cff8627a711ba1d2b8b0",
                    "code": "BS-DR-0022",
                    "createdBy": "6077cdbe627a711ba1d2b823",
                    "updatedBy": "6077cdbe627a711ba1d2b823",
                    "name": "Device Group",
                    "path": "/dashboard/master/device-group",
                    "urlEndPoint": "/device-group",
                    "level": 2,
                    "icon": null,
                    "type": "manage",
                    "drawer-code": null,
                    "collectionName": "deviceGroups"
                },
                {
                    "_id": "6077cff8627a711ba1d2b8b1",
                    "code": "BS-DR-0023",
                    "createdBy": "6077cdbe627a711ba1d2b823",
                    "updatedBy": "6077cdbe627a711ba1d2b823",
                    "name": "Storage Group",
                    "path": "/dashboard/master/storage-group",
                    "urlEndPoint": "/storage-group",
                    "level": 2,
                    "icon": null,
                    "type": "manage",
                    "drawer-code": null,
                    "collectionName": "storageGroups"
                },
                {
                    "_id": "6077cff8627a711ba1d2b8b2",
                    "code": "BS-DR-0024",
                    "createdBy": "6077cdbe627a711ba1d2b823",
                    "updatedBy": "6077cdbe627a711ba1d2b823",
                    "name": "Functional Group",
                    "path": "/dashboard/master/functional-group",
                    "urlEndPoint": "/functional-group",
                    "level": 2,
                    "icon": null,
                    "type": "manage",
                    "drawer-code": null,
                    "collectionName": "functionalGroups"
                },
                {
                    "_id": "6077cff8627a711ba1d2b8b3",
                    "code": "BS-DR-0025",
                    "createdBy": "6077cdbe627a711ba1d2b823",
                    "updatedBy": "6077cdbe627a711ba1d2b823",
                    "name": "Process Group",
                    "path": "/dashboard/master/process-group",
                    "urlEndPoint": "/process-group",
                    "level": 2,
                    "icon": null,
                    "type": "manage",
                    "drawer-code": null,
                    "collectionName": "processGroups"
                }
            ]
        },
        {
            "_id": "6077cff8627a711ba1d2b8b9",
            "code": "BS-DR-0031",
            "createdBy": "6077cdbe627a711ba1d2b823",
            "updatedBy": "6077cdbe627a711ba1d2b823",
            "name": "Masters",
            "path": null,
            "urlEndPoint": null,
            "level": 1,
            "icon": "fa fa-th",
            "type": null,
            "drawer-code": "BS-DR-0027,BS-DR-0028,BS-DR-0029,\nBS-DR-0030",
            "collectionName": null,
            "drawerId": [
                {
                    "_id": "6077cff8627a711ba1d2b8b5",
                    "code": "BS-DR-0027",
                    "createdBy": "6077cdbe627a711ba1d2b823",
                    "updatedBy": "6077cdbe627a711ba1d2b823",
                    "name": "Device Type",
                    "path": "/dashboard/master/device-type",
                    "urlEndPoint": "/device-type",
                    "level": 2,
                    "icon": null,
                    "type": "manage",
                    "drawer-code": null,
                    "collectionName": "deviceTypes"
                },
                {
                    "_id": "6077cff8627a711ba1d2b8b6",
                    "code": "BS-DR-0028",
                    "createdBy": "6077cdbe627a711ba1d2b823",
                    "updatedBy": "6077cdbe627a711ba1d2b823",
                    "name": "Storage Type",
                    "path": "/dashboard/master/storage-type",
                    "urlEndPoint": "/storage-type",
                    "level": 2,
                    "icon": null,
                    "type": "manage",
                    "drawer-code": null,
                    "collectionName": "storageTypes"
                },
                {
                    "_id": "6077cff8627a711ba1d2b8b7",
                    "code": "BS-DR-0029",
                    "createdBy": "6077cdbe627a711ba1d2b823",
                    "updatedBy": "6077cdbe627a711ba1d2b823",
                    "name": "Functional Type",
                    "path": "/dashboard/master/functional-type",
                    "urlEndPoint": "/functional-type",
                    "level": 2,
                    "icon": null,
                    "type": "manage",
                    "drawer-code": null,
                    "collectionName": "functionalTypes"
                }
            ]
        },
        {
            "_id": "6077cff8627a711ba1d2b8ba",
            "code": "BS-DR-0032",
            "createdBy": "6077cdbe627a711ba1d2b823",
            "updatedBy": "6077cdbe627a711ba1d2b823",
            "name": "Settings",
            "path": "/dashboard/settings",
            "urlEndPoint": "/settings",
            "level": 1,
            "icon": "fa fa-cog",
            "type": null,
            "drawer-code": null,
            "collectionName": "settings",
            "drawerId": []
        },
        {
            "_id": "6077cff8627a711ba1d2b8bc",
            "code": "BS-DR-0034",
            "createdBy": "6077cdbe627a711ba1d2b823",
            "updatedBy": "6077cdbe627a711ba1d2b823",
            "name": "Database",
            "path": "/dashboard/database",
            "urlEndPoint": "/database",
            "level": 1,
            "icon": "fa fa-database",
            "type": null,
            "drawer-code": null,
            "collectionName": null,
            "drawerId": []
        }
    ],
    "error": null
}
